<define-tag pagetitle>DSA-4811-1 libxstream-java</define-tag>
<define-tag report_date>2020-12-15</define-tag>
<define-tag secrefs>CVE-2020-26217</define-tag>
<define-tag packages>libxstream-java</define-tag>
<define-tag isvulnerable>yes</define-tag>
<define-tag fixed>yes</define-tag>
<define-tag fixed-section>no</define-tag>

#use wml::debian::security



</dl>
