<define-tag pagetitle>DLA-1105-1 clamav</define-tag>
<define-tag report_date>2017-9-22</define-tag>
<define-tag secrefs>CVE-2017-6418 CVE-2017-6420</define-tag>
<define-tag packages>clamav</define-tag>
<define-tag isvulnerable>yes</define-tag>
<define-tag fixed>yes</define-tag>
<define-tag fixed-section>no</define-tag>

#use wml::debian::security

