<define-tag pagetitle>DLA-2224-1 dosfstools</define-tag>
<define-tag report_date>2020-5-30</define-tag>
<define-tag secrefs>CVE-2015-8872 CVE-2016-4804</define-tag>
<define-tag packages>dosfstools</define-tag>
<define-tag isvulnerable>yes</define-tag>
<define-tag fixed>yes</define-tag>
<define-tag fixed-section>no</define-tag>

#use wml::debian::security

