<define-tag pagetitle>DLA-1455-1 mutt</define-tag>
<define-tag report_date>2018-8-2</define-tag>
<define-tag secrefs>CVE-2018-14349 CVE-2018-14350 CVE-2018-14351 CVE-2018-1435 CVE-2018-14353 CVE-2018-14354 CVE-2018-14355 CVE-2018-1435 CVE-2018-14357 CVE-2018-14358 CVE-2018-14359 CVE-2018-1436 CVE-2018-14361 CVE-2018-14362 CVE-2018-14363 Bug#904051</define-tag>
<define-tag packages>mutt</define-tag>
<define-tag isvulnerable>yes</define-tag>
<define-tag fixed>yes</define-tag>
<define-tag fixed-section>no</define-tag>

#use wml::debian::security

