<define-tag pagetitle>DSA-4504-1 vlc</define-tag>
<define-tag report_date>2019-8-20</define-tag>
<define-tag secrefs>CVE-2019-13602 CVE-2019-13962 CVE-2019-14437 CVE-2019-14438 CVE-2019-14498 CVE-2019-14533 CVE-2019-14534 CVE-2019-14535 CVE-2019-14776 CVE-2019-14777 CVE-2019-14778 CVE-2019-14970</define-tag>
<define-tag packages>vlc</define-tag>
<define-tag isvulnerable>yes</define-tag>
<define-tag fixed>yes</define-tag>
<define-tag fixed-section>no</define-tag>

#use wml::debian::security



</dl>
