<define-tag pagetitle>DSA-4424-1 pdns</define-tag>
<define-tag report_date>2019-4-04</define-tag>
<define-tag secrefs>CVE-2019-3871 Bug#924966</define-tag>
<define-tag packages>pdns</define-tag>
<define-tag isvulnerable>yes</define-tag>
<define-tag fixed>yes</define-tag>
<define-tag fixed-section>no</define-tag>

#use wml::debian::security



</dl>
