<define-tag pagetitle>DSA-4485-1 openjdk-8</define-tag>
<define-tag report_date>2019-7-21</define-tag>
<define-tag secrefs>CVE-2019-2745 CVE-2019-2762 CVE-2019-2769 CVE-2019-2786 CVE-2019-2816 CVE-2019-2842</define-tag>
<define-tag packages>openjdk-8</define-tag>
<define-tag isvulnerable>yes</define-tag>
<define-tag fixed>yes</define-tag>
<define-tag fixed-section>no</define-tag>

#use wml::debian::security



</dl>
