<define-tag pagetitle>DLA-1867-1 wpa</define-tag>
<define-tag report_date>2019-08-01</define-tag>
<define-tag secrefs>CVE-2019-9495 CVE-2019-9497 CVE-2019-9498 CVE-2019-9499 CVE-2019-11555 Bug#927463</define-tag>
<define-tag packages>wpa</define-tag>
<define-tag isvulnerable>yes</define-tag>
<define-tag fixed>yes</define-tag>
<define-tag fixed-section>no</define-tag>

#use wml::debian::security

